Start

Current time: 2018-06-05 13:56:01
Active Group Found: 1

Group ID: 19
Group schedule time: 2018-06-05 13:23:02
Group Found: 1
Group ID: 19
Group schedule time: 2018-06-05 13:23:02
Group next schedule time: 2018-06-06 13:56:01

Used ID. 18
User Can Sent: 25000
User Sent: 0
User have permition to sent post
Rss Group

                                                           
  [Symfony\Component\Debug\Exception\FatalThrowableError]  
  Call to a member function where() on null                
                                                           

